Data Science for Public Policy
…
# Making predictions on the testing data
predictions <- 
    bind_cols(
        df_test, 
        predict(object = final_lasso, new_data = df_test)
    )

# Printing results
predictions %>%
  select(pmjdy, .pred) %>%
  print()

# A tibble: 33 × 2
   pmjdy      .pred
   <labelled> <dbl>
 1 17.191     16.2 
 2 37.592     40.5 
 3 46.794     42.3 
 4 28.801     31.8 
 5 19.175     17.0 
 6 21.302     18.7 
 7 46.070     48.1 
 8 52.380     51.4 
 9 22.666     23.1 
10  9.893      8.78
# ℹ 23 more rows
…
